…
#### 3. What are three pieces of repo information that strike you as the most useful? I.e. if you were going to make a data frame of repositories, what might the variables be?

``` r
map_df(gh_repos[[1]], magrittr::extract, c("name", "id","private", "fork", "url"))
```

    ## # A tibble: 30 x 5
    ##           name       id private  fork
    ##          <chr>    <int>   <lgl> <lgl>
    ##  1       after 61160198   FALSE FALSE
    ##  2      argufy 40500181   FALSE FALSE
    ##  3         ask 36442442   FALSE FALSE
    ##  4 baseimports 34924886   FALSE FALSE
    ##  5      citest 61620661   FALSE  TRUE
    ##  6  clisymbols 33907457   FALSE FALSE
    ##  7      cmaker 37236467   FALSE  TRUE
    ##  8       cmark 67959624   FALSE  TRUE
    ##  9  conditions 63152619   FALSE  TRUE
    ## 10      crayon 24343686   FALSE FALSE
    ## # ... with 20 more rows, and 1 more variables: url <chr>
…
